LFP,NMC,NCA,LMO
Sicherheit,5,3,1.5,4
Energiedichte[Wh/kg],2.5,4.5,5,3.5
Leistungsdichte [W/kg],4,4.5,5,5
Zyklenzahl,5,3,3,4
Kalendarische Lebensdauer,4.5,4.5,5,2
Kosten,4,3.5,3,3
Schnellladefaehigkeit,5,3,3,3
Temperaturbereich,4.5,4,4,4